simulation/qsim/elektroniczny_zamek.msim.vcd
$comment
	File created using the following command:
		vcd file elektroniczny_zamek.msim.vcd -direction
$end
$date
	Tue Apr 21 18:33:46 2020
$end
$version
	ModelSim Version 10.5b
$end
$timescale
	1ps
$end

$scope module cnt_4_vhd_vec_tst $end
$var wire 1 ! clk $end
$var wire 1 " ena $end
$var wire 1 # rst $end
$var wire 1 $ wart [3] $end
$var wire 1 % wart [2] $end
$var wire 1 & wart [1] $end
$var wire 1 ' wart [0] $end

$scope module i1 $end
$var wire 1 ( gnd $end
$var wire 1 ) vcc $end
$var wire 1 * unknown $end
$var wire 1 + devoe $end
$var wire 1 , devclrn $end
$var wire 1 - devpor $end
$var wire 1 . ww_devoe $end
$var wire 1 / ww_devclrn $end
$var wire 1 0 ww_devpor $end
$var wire 1 1 ww_rst $end
$var wire 1 2 ww_clk $end
$var wire 1 3 ww_ena $end
$var wire 1 4 ww_wart [3] $end
$var wire 1 5 ww_wart [2] $end
$var wire 1 6 ww_wart [1] $end
$var wire 1 7 ww_wart [0] $end
$var wire 1 8 \wart[0]~output_o\ $end
$var wire 1 9 \wart[1]~output_o\ $end
$var wire 1 : \wart[2]~output_o\ $end
$var wire 1 ; \wart[3]~output_o\ $end
$var wire 1 < \clk~input_o\ $end
$var wire 1 = \ena~input_o\ $end
$var wire 1 > \counter[0]~0_combout\ $end
$var wire 1 ? \rst~input_o\ $end
$var wire 1 @ \counter[1]~1_combout\ $end
$var wire 1 A \counter[2]~2_combout\ $end
$var wire 1 B \counter[3]~3_combout\ $end
$var wire 1 C \counter[3]~4_combout\ $end
$var wire 1 D counter [3] $end
$var wire 1 E counter [2] $end
$var wire 1 F counter [1] $end
$var wire 1 G counter [0] $end
$var wire 1 H \ALT_INV_rst~input_o\ $end
$upscope $end
$upscope $end
$enddefinitions $end
#0
$dumpvars
0!
1"
1#
0(
1)
x*
1+
1,
1-
1.
1/
10
11
02
13
08
09
0:
0;
0<
1=
1>
1?
0@
0A
0B
0C
0H
04
05
06
07
0D
0E
0F
0G
0$
0%
0&
0'
$end
#5000
1!
12
1<
#10000
0!
02
0<
#15000
1!
12
1<
#20000
0!
0#
02
01
0?
0<
1H
#25000
1!
12
1<
1G
0>
1@
18
17
1'
#30000
0!
02
0<
#35000
1!
12
1<
0G
1F
1>
19
08
16
07
0'
1&
#40000
0!
02
0<
#45000
1!
12
1<
1G
0>
0@
1A
18
17
1'
#50000
0!
02
0<
#55000
1!
12
1<
0G
0F
1E
1>
1:
09
08
15
06
07
0'
0&
1%
#60000
0!
02
0<
#65000
1!
12
1<
1G
0>
1@
18
17
1'
#70000
0!
02
0<
#75000
1!
12
1<
0G
1F
1>
19
08
16
07
0'
1&
#80000
0!
02
0<
#85000
1!
12
1<
1G
0>
0@
0A
1B
1C
18
17
1'
#90000
0!
02
0<
#95000
1!
12
1<
0G
0F
0E
1D
0C
1>
0B
1C
1;
0:
09
08
14
05
06
07
0'
0&
0%
1$
#100000
0!
02
0<
#105000
1!
12
1<
1G
0>
1@
18
17
1'
#110000
0!
02
0<
#115000
1!
12
1<
0G
1F
1>
19
08
16
07
0'
1&
#120000
0!
02
0<
#125000
1!
12
1<
1G
0>
0@
1A
18
17
1'
#130000
0!
02
0<
#135000
1!
12
1<
0G
0F
1E
1>
1:
09
08
15
06
07
0'
0&
1%
#140000
0!
02
0<
#145000
1!
12
1<
1G
0>
1@
18
17
1'
#150000
0!
02
0<
#155000
1!
12
1<
0G
1F
1>
19
08
16
07
0'
1&
#160000
0!
02
0<
#165000
1!
12
1<
1G
0>
0@
0A
1B
0C
18
17
1'
#170000
0!
02
0<
#175000
1!
12
1<
0G
0F
0E
0D
1C
1>
0B
0C
0;
0:
09
08
04
05
06
07
0'
0&
0%
0$
#180000
0!
02
0<
#185000
1!
12
1<
1G
0>
1@
18
17
1'
#190000
0!
02
0<
#195000
1!
12
1<
0G
1F
1>
19
08
16
07
0'
1&
#200000
0!
02
0<
#205000
1!
12
1<
1G
0>
0@
1A
18
17
1'
#210000
0!
02
0<
#215000
1!
12
1<
0G
0F
1E
1>
1:
09
08
15
06
07
0'
0&
1%
#220000
0!
02
0<
#225000
1!
12
1<
1G
0>
1@
18
17
1'
#230000
0!
02
0<
#235000
1!
12
1<
0G
1F
1>
19
08
16
07
0'
1&
#240000
0!
02
0<
#245000
1!
12
1<
1G
0>
0@
0A
1B
1C
18
17
1'
#250000
0!
02
0<
#255000
1!
12
1<
0G
0F
0E
1D
0C
1>
0B
1C
1;
0:
09
08
14
05
06
07
0'
0&
0%
1$
#260000
0!
02
0<
#265000
1!
12
1<
1G
0>
1@
18
17
1'
#270000
0!
02
0<
#275000
1!
12
1<
0G
1F
1>
19
08
16
07
0'
1&
#280000
0!
02
0<
#285000
1!
12
1<
1G
0>
0@
1A
18
17
1'
#290000
0!
02
0<
#295000
1!
12
1<
0G
0F
1E
1>
1:
09
08
15
06
07
0'
0&
1%
#300000
0!
02
0<
#305000
1!
12
1<
1G
0>
1@
18
17
1'
#310000
0!
02
0<
#315000
1!
12
1<
0G
1F
1>
19
08
16
07
0'
1&
#320000
0!
02
0<
#325000
1!
12
1<
1G
0>
0@
0A
1B
0C
18
17
1'
#330000
0!
0"
02
03
0=
0<
1>
1@
1A
0B
1C
#335000
1!
12
1<
#340000
0!
02
0<
#345000
1!
12
1<
#350000
0!
02
0<
#355000
1!
12
1<
#360000
0!
02
0<
#365000
1!
12
1<
#370000
0!
02
0<
#375000
1!
12
1<
#380000
0!
02
0<
#385000
1!
12
1<
#390000
0!
02
0<
#395000
1!
12
1<
#400000
0!
02
0<
#405000
1!
12
1<
#410000
0!
02
0<
#415000
1!
12
1<
#420000
0!
02
0<
#425000
1!
12
1<
#430000
0!
02
0<
#435000
1!
12
1<
#440000
0!
02
0<
#445000
1!
12
1<
#450000
0!
02
0<
#455000
1!
12
1<
#460000
0!
02
0<
#465000
1!
12
1<
#470000
0!
02
0<
#475000
1!
12
1<
#480000
0!
02
0<
#485000
1!
12
1<
#490000
0!
02
0<
#495000
1!
12
1<
#500000
0!
02
0<
#505000
1!
12
1<
#510000
0!
02
0<
#515000
1!
12
1<
#520000
0!
02
0<
#525000
1!
12
1<
#530000
0!
02
0<
#535000
1!
12
1<
#540000
0!
02
0<
#545000
1!
12
1<
#550000
0!
02
0<
#555000
1!
12
1<
#560000
0!
02
0<
#565000
1!
12
1<
#570000
0!
02
0<
#575000
1!
12
1<
#580000
0!
02
0<
#585000
1!
12
1<
#590000
0!
02
0<
#595000
1!
12
1<
#600000
0!
02
0<
#605000
1!
12
1<
#610000
0!
02
0<
#615000
1!
12
1<
#620000
0!
02
0<
#625000
1!
12
1<
#630000
0!
02
0<
#635000
1!
12
1<
#640000
0!
02
0<
#645000
1!
12
1<
#650000
0!
02
0<
#655000
1!
12
1<
#660000
0!
02
0<
#665000
1!
12
1<
#670000
0!
02
0<
#675000
1!
12
1<
#680000
0!
02
0<
#685000
1!
12
1<
#690000
0!
02
0<
#695000
1!
12
1<
#700000
0!
02
0<
#705000
1!
12
1<
#710000
0!
02
0<
#715000
1!
12
1<
#720000
0!
02
0<
#725000
1!
12
1<
#730000
0!
02
0<
#735000
1!
12
1<
#740000
0!
02
0<
#745000
1!
12
1<
#750000
0!
02
0<
#755000
1!
12
1<
#760000
0!
02
0<
#765000
1!
12
1<
#770000
0!
02
0<
#775000
1!
12
1<
#780000
0!
02
0<
#785000
1!
12
1<
#790000
0!
02
0<
#795000
1!
12
1<
#800000
0!
02
0<
#805000
1!
12
1<
#810000
0!
02
0<
#815000
1!
12
1<
#820000
0!
02
0<
#825000
1!
12
1<
#830000
0!
02
0<
#835000
1!
12
1<
#840000
0!
02
0<
#845000
1!
12
1<
#850000
0!
02
0<
#855000
1!
12
1<
#860000
0!
02
0<
#865000
1!
12
1<
#870000
0!
02
0<
#875000
1!
12
1<
#880000
0!
02
0<
#885000
1!
12
1<
#890000
0!
02
0<
#895000
1!
12
1<
#900000
0!
02
0<
#905000
1!
12
1<
#910000
0!
02
0<
#915000
1!
12
1<
#920000
0!
02
0<
#925000
1!
12
1<
#930000
0!
02
0<
#935000
1!
12
1<
#940000
0!
02
0<
#945000
1!
12
1<
#950000
0!
02
0<
#955000
1!
12
1<
#960000
0!
02
0<
#965000
1!
12
1<
#970000
0!
02
0<
#975000
1!
12
1<
#980000
0!
02
0<
#985000
1!
12
1<
#990000
0!
02
0<
#995000
1!
12
1<
