simulation/qsim/elektroniczny_zamek.msim.vcd
$comment
	File created using the following command:
		vcd file elektroniczny_zamek.msim.vcd -direction
$end
$date
	Tue Apr 21 21:15:11 2020
$end
$version
	ModelSim Version 10.5b
$end
$timescale
	1ps
$end

$scope module kb_ctrl_pckg_vhd_vec_tst $end
$var wire 1 ! clk $end
$var wire 1 " col [3] $end
$var wire 1 # col [2] $end
$var wire 1 $ col [1] $end
$var wire 1 % col [0] $end
$var wire 1 & key_pulse $end
$var wire 1 ' q [3] $end
$var wire 1 ( q [2] $end
$var wire 1 ) q [1] $end
$var wire 1 * q [0] $end
$var wire 1 + row [3] $end
$var wire 1 , row [2] $end
$var wire 1 - row [1] $end
$var wire 1 . row [0] $end
$var wire 1 / rst $end

$scope module i1 $end
$var wire 1 0 gnd $end
$var wire 1 1 vcc $end
$var wire 1 2 unknown $end
$var wire 1 3 devoe $end
$var wire 1 4 devclrn $end
$var wire 1 5 devpor $end
$var wire 1 6 ww_devoe $end
$var wire 1 7 ww_devclrn $end
$var wire 1 8 ww_devpor $end
$var wire 1 9 ww_rst $end
$var wire 1 : ww_clk $end
$var wire 1 ; ww_col [3] $end
$var wire 1 < ww_col [2] $end
$var wire 1 = ww_col [1] $end
$var wire 1 > ww_col [0] $end
$var wire 1 ? ww_key_pulse $end
$var wire 1 @ ww_row [3] $end
$var wire 1 A ww_row [2] $end
$var wire 1 B ww_row [1] $end
$var wire 1 C ww_row [0] $end
$var wire 1 D ww_q [3] $end
$var wire 1 E ww_q [2] $end
$var wire 1 F ww_q [1] $end
$var wire 1 G ww_q [0] $end
$var wire 1 H \rst~inputclkctrl_INCLK_bus\ [3] $end
$var wire 1 I \rst~inputclkctrl_INCLK_bus\ [2] $end
$var wire 1 J \rst~inputclkctrl_INCLK_bus\ [1] $end
$var wire 1 K \rst~inputclkctrl_INCLK_bus\ [0] $end
$var wire 1 L \clk~inputclkctrl_INCLK_bus\ [3] $end
$var wire 1 M \clk~inputclkctrl_INCLK_bus\ [2] $end
$var wire 1 N \clk~inputclkctrl_INCLK_bus\ [1] $end
$var wire 1 O \clk~inputclkctrl_INCLK_bus\ [0] $end
$var wire 1 P \key_pulse~output_o\ $end
$var wire 1 Q \row[0]~output_o\ $end
$var wire 1 R \row[1]~output_o\ $end
$var wire 1 S \row[2]~output_o\ $end
$var wire 1 T \row[3]~output_o\ $end
$var wire 1 U \q[0]~output_o\ $end
$var wire 1 V \q[1]~output_o\ $end
$var wire 1 W \q[2]~output_o\ $end
$var wire 1 X \q[3]~output_o\ $end
$var wire 1 Y \col[2]~input_o\ $end
$var wire 1 Z \col[3]~input_o\ $end
$var wire 1 [ \clk~input_o\ $end
$var wire 1 \ \clk~inputclkctrl_outclk\ $end
$var wire 1 ] \kb_cnt|counter[0]~1_combout\ $end
$var wire 1 ^ \rst~input_o\ $end
$var wire 1 _ \rst~inputclkctrl_outclk\ $end
$var wire 1 ` \kb_cnt|counter[1]~0_combout\ $end
$var wire 1 a \col[1]~input_o\ $end
$var wire 1 b \col[0]~input_o\ $end
$var wire 1 c \kb_mux|Mux0~0_combout\ $end
$var wire 1 d \kb_mux|Mux0~1_combout\ $end
$var wire 1 e \kb_cnt|counter[2]~4_combout\ $end
$var wire 1 f \kb_cnt|counter[3]~2_combout\ $end
$var wire 1 g \kb_cnt|counter[3]~3_combout\ $end
$var wire 1 h \kb_dec|Mux3~0_combout\ $end
$var wire 1 i \kb_dec|Mux2~0_combout\ $end
$var wire 1 j \kb_dec|Mux2~1_combout\ $end
$var wire 1 k \kb_dec|Mux2~2_combout\ $end
$var wire 1 l \kb_cnt|counter\ [3] $end
$var wire 1 m \kb_cnt|counter\ [2] $end
$var wire 1 n \kb_cnt|counter\ [1] $end
$var wire 1 o \kb_cnt|counter\ [0] $end
$var wire 1 p \ALT_INV_rst~inputclkctrl_outclk\ $end
$var wire 1 q \kb_dec|ALT_INV_Mux3~0_combout\ $end
$upscope $end
$upscope $end
$enddefinitions $end
#0
$dumpvars
0!
0&
1/
00
11
x2
13
14
15
16
17
18
19
0:
0?
0P
1Q
0R
0S
0T
0U
0V
0W
0X
0Y
0Z
0[
0\
1]
1^
1_
0`
0a
0b
0c
0d
0e
1f
0g
0h
0i
0j
0k
0p
1q
0"
0#
0$
0%
0+
0,
0-
1.
0'
0(
0)
0*
0;
0<
0=
0>
0@
0A
0B
1C
0D
0E
0F
0G
0l
0m
0n
0o
1L
1M
1N
0O
1H
1I
1J
1K
$end
#5000
1!
1:
1[
1O
1\
#10000
0!
0:
0[
0O
0\
#15000
1!
1:
1[
1O
1\
#20000
0!
0:
0[
0O
0\
#25000
1!
1:
1[
1O
1\
#30000
0!
0:
0[
0O
0\
#35000
1!
1:
1[
1O
1\
#40000
0!
0/
0:
09
0^
0[
0K
0O
0\
0_
1p
#45000
1!
1:
1[
1O
1\
1o
0]
1`
1U
1G
1*
#50000
0!
1#
0:
1<
1Y
0[
0O
0\
#55000
1!
1:
1[
1O
1\
0o
1n
1d
1]
0]
1V
0U
1F
0G
1P
0*
1)
1?
1&
#60000
0!
0:
0[
0O
0\
#65000
1!
1:
1[
1O
1\
#70000
0!
0:
0[
0O
0\
#75000
1!
1:
1[
1O
1\
#80000
0!
0:
0[
0O
0\
#85000
1!
1:
1[
1O
1\
#90000
0!
0:
0[
0O
0\
#95000
1!
1:
1[
1O
1\
#100000
0!
0#
0:
0<
0Y
0[
0O
0d
1]
0\
0P
0?
0&
#105000
1!
1:
1[
1O
1\
1o
0]
0`
1c
1e
1U
1G
1*
#110000
0!
0:
0[
0O
0\
#115000
1!
1:
1[
1O
1\
0o
0n
1m
1h
1i
1d
1]
0c
0q
0d
0]
1W
0V
0U
1]
1E
0F
0G
1P
1R
0*
0)
1(
0Q
1?
1B
0P
0C
1&
1-
0?
0.
0&
#120000
0!
0:
0[
0O
0\
#125000
1!
1:
1[
1O
1\
1o
0]
1`
0f
1U
1G
1*
#130000
0!
0:
0[
0O
0\
#135000
1!
1:
1[
1O
1\
0o
1n
1g
1]
1f
0g
1V
0U
1F
0G
0*
1)
#140000
0!
0:
0[
0O
0\
#145000
1!
1:
1[
1O
1\
1o
0]
0`
1c
0e
0f
1g
1U
1G
1*
#150000
0!
0:
0[
0O
0\
#155000
1!
1:
1[
1O
1\
0o
0n
0m
1l
0i
1j
1d
1]
0c
1f
0d
0]
1X
0W
0V
0U
1]
1D
0E
0F
0G
1P
1S
0R
0*
0)
0(
1'
1?
1A
0B
0P
1&
0-
1,
0?
0&
#160000
0!
1$
0:
1=
1a
0[
0O
0\
#165000
1!
1:
1[
1O
1\
1o
0]
1`
1c
1d
1U
1]
0`
1G
1*
1P
1?
1&
#170000
0!
0:
0[
0O
0\
#175000
1!
1:
1[
1O
1\
#180000
0!
0:
0[
0O
0\
#185000
1!
1:
1[
1O
1\
#190000
0!
0:
0[
0O
0\
#195000
1!
1:
1[
1O
1\
#200000
0!
0$
0:
0=
0a
0[
0O
0c
0d
0\
0]
1`
0P
0?
0&
#205000
1!
1:
1[
1O
1\
0o
1n
1]
1V
0U
1F
0G
0*
1)
#210000
0!
0:
0[
0O
0\
#215000
1!
1:
1[
1O
1\
1o
0]
0`
1c
1e
1U
1G
1*
#220000
0!
0:
0[
0O
0\
#225000
1!
1:
1[
1O
1\
0o
0n
1m
0j
1k
1d
1]
0c
0d
0]
1W
0V
0U
1]
1E
0F
0G
1P
1T
0S
0*
0)
1(
1?
1@
0A
0P
1&
0,
1+
0?
0&
#230000
0!
0:
0[
0O
0\
#235000
1!
1:
1[
1O
1\
1o
0]
1`
0f
1U
1G
1*
#240000
0!
1"
0:
1;
1Z
0[
0O
0\
#245000
1!
1:
1[
1O
1\
0o
1n
0g
1]
1f
1g
1V
0U
1F
0G
0*
1)
#250000
0!
0:
0[
0O
0\
#255000
1!
1:
1[
1O
1\
1o
0]
0`
1c
0e
0f
0g
1d
1U
1]
1`
1e
1g
1G
1*
1P
1?
1&
#260000
0!
0:
0[
0O
0\
#265000
1!
1:
1[
1O
1\
#270000
0!
0:
0[
0O
0\
#275000
1!
1:
1[
1O
1\
#280000
0!
0:
0[
0O
0\
#285000
1!
1:
1[
1O
1\
#290000
0!
0:
0[
0O
0\
#295000
1!
1:
1[
1O
1\
#300000
0!
0"
0:
0;
0Z
0[
0O
0d
0]
0`
0e
0g
0\
0P
0?
0&
#305000
1!
1:
1[
1O
1\
0o
0n
0m
0l
0h
0k
1d
1]
0c
1f
1q
0d
0]
0X
0W
0V
0U
1]
0D
0E
0F
0G
1P
0T
0*
0)
0(
0'
1Q
1?
0@
0P
1C
1&
0+
0?
1.
0&
#310000
0!
0:
0[
0O
0\
#315000
1!
1:
1[
1O
1\
1o
0]
1`
1U
1G
1*
#320000
0!
0:
0[
0O
0\
#325000
1!
1:
1[
1O
1\
0o
1n
1]
1V
0U
1F
0G
0*
1)
#330000
0!
0:
0[
0O
0\
#335000
1!
1:
1[
1O
1\
1o
0]
0`
1c
1e
1U
1G
1*
#340000
0!
0:
0[
0O
0\
#345000
1!
1:
1[
1O
1\
0o
0n
1m
1h
1i
1d
1]
0c
0q
0d
0]
1W
0V
0U
1]
1E
0F
0G
1P
1R
0*
0)
1(
0Q
1?
1B
0P
0C
1&
1-
0?
0.
0&
#350000
0!
0:
0[
0O
0\
#355000
1!
1:
1[
1O
1\
1o
0]
1`
0f
1U
1G
1*
#360000
0!
0:
0[
0O
0\
#365000
1!
1:
1[
1O
1\
0o
1n
1g
1]
1f
0g
1V
0U
1F
0G
0*
1)
#370000
0!
0:
0[
0O
0\
#375000
1!
1:
1[
1O
1\
1o
0]
0`
1c
0e
0f
1g
1U
1G
1*
#380000
0!
0:
0[
0O
0\
#385000
1!
1:
1[
1O
1\
0o
0n
0m
1l
0i
1j
1d
1]
0c
1f
0d
0]
1X
0W
0V
0U
1]
1D
0E
0F
0G
1P
1S
0R
0*
0)
0(
1'
1?
1A
0B
0P
1&
0-
1,
0?
0&
#390000
0!
0:
0[
0O
0\
#395000
1!
1:
1[
1O
1\
1o
0]
1`
1U
1G
1*
#400000
0!
0:
0[
0O
0\
#405000
1!
1:
1[
1O
1\
0o
1n
1]
1V
0U
1F
0G
0*
1)
#410000
0!
0:
0[
0O
0\
#415000
1!
1:
1[
1O
1\
1o
0]
0`
1c
1e
1U
1G
1*
#420000
0!
0:
0[
0O
0\
#425000
1!
1:
1[
1O
1\
0o
0n
1m
0j
1k
1d
1]
0c
0d
0]
1W
0V
0U
1]
1E
0F
0G
1P
1T
0S
0*
0)
1(
1?
1@
0A
0P
1&
0,
1+
0?
0&
#430000
0!
0:
0[
0O
0\
#435000
1!
1:
1[
1O
1\
1o
0]
1`
0f
1U
1G
1*
#440000
0!
0:
0[
0O
0\
#445000
1!
1:
1[
1O
1\
0o
1n
0g
1]
1f
1g
1V
0U
1F
0G
0*
1)
#450000
0!
0:
0[
0O
0\
#455000
1!
1:
1[
1O
1\
1o
0]
0`
1c
0e
0f
0g
1U
1G
1*
#460000
0!
0:
0[
0O
0\
#465000
1!
1:
1[
1O
1\
0o
0n
0m
0l
0h
0k
1d
1]
0c
1f
1q
0d
0]
0X
0W
0V
0U
1]
0D
0E
0F
0G
1P
0T
0*
0)
0(
0'
1Q
1?
0@
0P
1C
1&
0+
0?
1.
0&
#470000
0!
0:
0[
0O
0\
#475000
1!
1:
1[
1O
1\
1o
0]
1`
1U
1G
1*
#480000
0!
0:
0[
0O
0\
#485000
1!
1:
1[
1O
1\
0o
1n
1]
1V
0U
1F
0G
0*
1)
#490000
0!
0:
0[
0O
0\
#495000
1!
1:
1[
1O
1\
1o
0]
0`
1c
1e
1U
1G
1*
#500000
0!
0:
0[
0O
0\
#505000
1!
1:
1[
1O
1\
0o
0n
1m
1h
1i
1d
1]
0c
0q
0d
0]
1W
0V
0U
1]
1E
0F
0G
1P
1R
0*
0)
1(
0Q
1?
1B
0P
0C
1&
1-
0?
0.
0&
#510000
0!
0:
0[
0O
0\
#515000
1!
1:
1[
1O
1\
1o
0]
1`
0f
1U
1G
1*
#520000
0!
0:
0[
0O
0\
#525000
1!
1:
1[
1O
1\
0o
1n
1g
1]
1f
0g
1V
0U
1F
0G
0*
1)
#530000
0!
0:
0[
0O
0\
#535000
1!
1:
1[
1O
1\
1o
0]
0`
1c
0e
0f
1g
1U
1G
1*
#540000
0!
0:
0[
0O
0\
#545000
1!
1:
1[
1O
1\
0o
0n
0m
1l
0i
1j
1d
1]
0c
1f
0d
0]
1X
0W
0V
0U
1]
1D
0E
0F
0G
1P
1S
0R
0*
0)
0(
1'
1?
1A
0B
0P
1&
0-
1,
0?
0&
#550000
0!
0:
0[
0O
0\
#555000
1!
1:
1[
1O
1\
1o
0]
1`
1U
1G
1*
#560000
0!
0:
0[
0O
0\
#565000
1!
1:
1[
1O
1\
0o
1n
1]
1V
0U
1F
0G
0*
1)
#570000
0!
0:
0[
0O
0\
#575000
1!
1:
1[
1O
1\
1o
0]
0`
1c
1e
1U
1G
1*
#580000
0!
0:
0[
0O
0\
#585000
1!
1:
1[
1O
1\
0o
0n
1m
0j
1k
1d
1]
0c
0d
0]
1W
0V
0U
1]
1E
0F
0G
1P
1T
0S
0*
0)
1(
1?
1@
0A
0P
1&
0,
1+
0?
0&
#590000
0!
0:
0[
0O
0\
#595000
1!
1:
1[
1O
1\
1o
0]
1`
0f
1U
1G
1*
#600000
0!
0:
0[
0O
0\
#605000
1!
1:
1[
1O
1\
0o
1n
0g
1]
1f
1g
1V
0U
1F
0G
0*
1)
#610000
0!
0:
0[
0O
0\
#615000
1!
1:
1[
1O
1\
1o
0]
0`
1c
0e
0f
0g
1U
1G
1*
#620000
0!
0:
0[
0O
0\
#625000
1!
1:
1[
1O
1\
0o
0n
0m
0l
0h
0k
1d
1]
0c
1f
1q
0d
0]
0X
0W
0V
0U
1]
0D
0E
0F
0G
1P
0T
0*
0)
0(
0'
1Q
1?
0@
0P
1C
1&
0+
0?
1.
0&
#630000
0!
0:
0[
0O
0\
#635000
1!
1:
1[
1O
1\
1o
0]
1`
1U
1G
1*
#640000
0!
0:
0[
0O
0\
#645000
1!
1:
1[
1O
1\
0o
1n
1]
1V
0U
1F
0G
0*
1)
#650000
0!
0:
0[
0O
0\
#655000
1!
1:
1[
1O
1\
1o
0]
0`
1c
1e
1U
1G
1*
#660000
0!
0:
0[
0O
0\
#665000
1!
1:
1[
1O
1\
0o
0n
1m
1h
1i
1d
1]
0c
0q
0d
0]
1W
0V
0U
1]
1E
0F
0G
1P
1R
0*
0)
1(
0Q
1?
1B
0P
0C
1&
1-
0?
0.
0&
#670000
0!
0:
0[
0O
0\
#675000
1!
1:
1[
1O
1\
1o
0]
1`
0f
1U
1G
1*
#680000
0!
0:
0[
0O
0\
#685000
1!
1:
1[
1O
1\
0o
1n
1g
1]
1f
0g
1V
0U
1F
0G
0*
1)
#690000
0!
0:
0[
0O
0\
#695000
1!
1:
1[
1O
1\
1o
0]
0`
1c
0e
0f
1g
1U
1G
1*
#700000
0!
0:
0[
0O
0\
#705000
1!
1:
1[
1O
1\
0o
0n
0m
1l
0i
1j
1d
1]
0c
1f
0d
0]
1X
0W
0V
0U
1]
1D
0E
0F
0G
1P
1S
0R
0*
0)
0(
1'
1?
1A
0B
0P
1&
0-
1,
0?
0&
#710000
0!
0:
0[
0O
0\
#715000
1!
1:
1[
1O
1\
1o
0]
1`
1U
1G
1*
#720000
0!
0:
0[
0O
0\
#725000
1!
1:
1[
1O
1\
0o
1n
1]
1V
0U
1F
0G
0*
1)
#730000
0!
0:
0[
0O
0\
#735000
1!
1:
1[
1O
1\
1o
0]
0`
1c
1e
1U
1G
1*
#740000
0!
0:
0[
0O
0\
#745000
1!
1:
1[
1O
1\
0o
0n
1m
0j
1k
1d
1]
0c
0d
0]
1W
0V
0U
1]
1E
0F
0G
1P
1T
0S
0*
0)
1(
1?
1@
0A
0P
1&
0,
1+
0?
0&
#750000
0!
0:
0[
0O
0\
#755000
1!
1:
1[
1O
1\
1o
0]
1`
0f
1U
1G
1*
#760000
0!
0:
0[
0O
0\
#765000
1!
1:
1[
1O
1\
0o
1n
0g
1]
1f
1g
1V
0U
1F
0G
0*
1)
#770000
0!
0:
0[
0O
0\
#775000
1!
1:
1[
1O
1\
1o
0]
0`
1c
0e
0f
0g
1U
1G
1*
#780000
0!
0:
0[
0O
0\
#785000
1!
1:
1[
1O
1\
0o
0n
0m
0l
0h
0k
1d
1]
0c
1f
1q
0d
0]
0X
0W
0V
0U
1]
0D
0E
0F
0G
1P
0T
0*
0)
0(
0'
1Q
1?
0@
0P
1C
1&
0+
0?
1.
0&
#790000
0!
0:
0[
0O
0\
#795000
1!
1:
1[
1O
1\
1o
0]
1`
1U
1G
1*
#800000
0!
0:
0[
0O
0\
#805000
1!
1:
1[
1O
1\
0o
1n
1]
1V
0U
1F
0G
0*
1)
#810000
0!
0:
0[
0O
0\
#815000
1!
1:
1[
1O
1\
1o
0]
0`
1c
1e
1U
1G
1*
#820000
0!
0:
0[
0O
0\
#825000
1!
1:
1[
1O
1\
0o
0n
1m
1h
1i
1d
1]
0c
0q
0d
0]
1W
0V
0U
1]
1E
0F
0G
1P
1R
0*
0)
1(
0Q
1?
1B
0P
0C
1&
1-
0?
0.
0&
#830000
0!
0:
0[
0O
0\
#835000
1!
1:
1[
1O
1\
1o
0]
1`
0f
1U
1G
1*
#840000
0!
0:
0[
0O
0\
#845000
1!
1:
1[
1O
1\
0o
1n
1g
1]
1f
0g
1V
0U
1F
0G
0*
1)
#850000
0!
0:
0[
0O
0\
#855000
1!
1:
1[
1O
1\
1o
0]
0`
1c
0e
0f
1g
1U
1G
1*
#860000
0!
0:
0[
0O
0\
#865000
1!
1:
1[
1O
1\
0o
0n
0m
1l
0i
1j
1d
1]
0c
1f
0d
0]
1X
0W
0V
0U
1]
1D
0E
0F
0G
1P
1S
0R
0*
0)
0(
1'
1?
1A
0B
0P
1&
0-
1,
0?
0&
#870000
0!
0:
0[
0O
0\
#875000
1!
1:
1[
1O
1\
1o
0]
1`
1U
1G
1*
#880000
0!
0:
0[
0O
0\
#885000
1!
1:
1[
1O
1\
0o
1n
1]
1V
0U
1F
0G
0*
1)
#890000
0!
0:
0[
0O
0\
#895000
1!
1:
1[
1O
1\
1o
0]
0`
1c
1e
1U
1G
1*
#900000
0!
0:
0[
0O
0\
#905000
1!
1:
1[
1O
1\
0o
0n
1m
0j
1k
1d
1]
0c
0d
0]
1W
0V
0U
1]
1E
0F
0G
1P
1T
0S
0*
0)
1(
1?
1@
0A
0P
1&
0,
1+
0?
0&
#910000
0!
0:
0[
0O
0\
#915000
1!
1:
1[
1O
1\
1o
0]
1`
0f
1U
1G
1*
#920000
0!
0:
0[
0O
0\
#925000
1!
1:
1[
1O
1\
0o
1n
0g
1]
1f
1g
1V
0U
1F
0G
0*
1)
#930000
0!
0:
0[
0O
0\
#935000
1!
1:
1[
1O
1\
1o
0]
0`
1c
0e
0f
0g
1U
1G
1*
#940000
0!
0:
0[
0O
0\
#945000
1!
1:
1[
1O
1\
0o
0n
0m
0l
0h
0k
1d
1]
0c
1f
1q
0d
0]
0X
0W
0V
0U
1]
0D
0E
0F
0G
1P
0T
0*
0)
0(
0'
1Q
1?
0@
0P
1C
1&
0+
0?
1.
0&
#950000
0!
0:
0[
0O
0\
#955000
1!
1:
1[
1O
1\
1o
0]
1`
1U
1G
1*
#960000
0!
0:
0[
0O
0\
#965000
1!
1:
1[
1O
1\
0o
1n
1]
1V
0U
1F
0G
0*
1)
#970000
0!
0:
0[
0O
0\
#975000
1!
1:
1[
1O
1\
1o
0]
0`
1c
1e
1U
1G
1*
#980000
0!
0:
0[
0O
0\
#985000
1!
1:
1[
1O
1\
0o
0n
1m
1h
1i
1d
1]
0c
0q
0d
0]
1W
0V
0U
1]
1E
0F
0G
1P
1R
0*
0)
1(
0Q
1?
1B
0P
0C
1&
1-
0?
0.
0&
#990000
0!
0:
0[
0O
0\
#995000
1!
1:
1[
1O
1\
1o
0]
1`
0f
1U
1G
1*
